{
  "selectedTemplate": 2,
  "headings": {
    "work": "Work Experience",
    "skills": "Skills",
    "education": "Education",
    "projects": "Projects"
  },
  "basics": {
    "name": "Saurabh Srivastava",
    "email": "saurabh.s0373@gmail.com",
    "phone": "+91 979 128 1988",
    "website": "saurabhs.xyz",
    "location": {
      "address": "Chennai, India"
    }
  },
  "education": [
    {
      "location": "Chennai, India",
      "studyType": "B.A. (Hons.) in Digital Media (Game Development)",
      "startDate": "August 2007",
      "endDate": "July 2010",
      "institution": "Image College of Arts, Animation and Technology"
    }
  ],
  "work": [
    {
      "company": "ProKarma Pvt. Ltd.",
      "location": "Chennai, India",
      "website": "",
      "startDate": "August 2014",
      "highlights": [
        "Handles the graphics related components development in Unity3D. Mentoring junior programmers to help them learn C# and Unity3D."
      ],
      "position": "Lead Software Programmer",
      "endDate": "Present"
    },
    {
      "highlights": [
        "Worked as lead programmer taking care of gameplay, UI, plugins, social, in-app and ad-networks integration in the games. ",
        "Handled the company’s Play Store and App Store accounts with releases and updates of the games. Worked with the publishers to have games release in the Chinese market. Guiding freshers and junior programmers learn C# and Unity3D."
      ],
      "company": "Zirco Mobile",
      "position": "Gameplay Programmer",
      "location": "Hyderabad, India",
      "startDate": "April 2013",
      "endDate": "August 2014"
    },
    {
      "highlights": [
        "Worked as gameplay programmer handling the gameplay, UI and inventory systems as well as collaborating with the artists and level designer for designing levels for the games. "
      ],
      "company": "Version 2 / The Awesome Game Studio",
      "position": "Gameplay Programmer",
      "location": "Hyderabad, India",
      "startDate": "Nov 2011",
      "endDate": "Apr 2013"
    },
    {
      "highlights": [
        "Researched on viability of developing Sony’s Lemmings like games on iOS devices using Unity3D and Unreal Engine 3."
      ],
      "company": "Trine Games",
      "position": "iOS Programmer",
      "location": "Mumbai, India",
      "startDate": "july  2011",
      "endDate": "Oct 20100"
    },
    {
      "highlights": [
        "Worked on development, porting and bug fixing of multiple mobile titles for feature phones including Worms, Robin Hood, FIFA 11, Need for Speed, Tiger Woods Golf and Medal of Honor."
      ],
      "company": "EA Mobiles",
      "position": "Associate Software Engineer",
      "location": "Hyderabad, India",
      "startDate": "Jan 2010",
      "endDate": "Oct 2010"
    }
  ],
  "skills": [
    {
      "name": "Programming Languages",
      "level": "",
      "keywords": [
        "C#",
        "C++",
        "Java",
        "Objective-C",
        "Python",
        "Lua"
      ]
    },
    {
      "keywords": [
        "Unity3D",
        "Unreal Engine 4",
        "MonoGame",
        "Cocos2d-x"
      ],
      "name": "Game Engines"
    }
  ],
  "projects": [
    {
      "name": "Trainer Station Client",
      "keywords": [
        "C# .NET",
        "Unity3D",
        "WPF"
      ],
      "description": "Simulation software for PS Technology for monitoring and training upto six trainee simultaneously"
    },
    {
      "keywords": [
        "C#",
        "Unity3D"
      ],
      "name": "El Cucuy",
      "description": "A level based survival game based on Hispanic folklore which integrates face tracking SDK Umoove."
    },
    {
      "keywords": [
        "C#",
        "Unity3D"
      ],
      "name": "Candy World Run",
      "description": "An endless runner game with multiple worlds,"
    },
    {
      "keywords": [
        "C++",
        "Cocos2d-X"
      ],
      "name": "Alphaman Elite",
      "description": "An edutainment game where the player has to complete words by collecting letters and avoiding the enemies in mazes"
    },
    {
      "keywords": [
        "C++",
        "Cocos2d-x"
      ],
      "name": "Wobble Bobble",
      "description": "A ball balancing party game for iOS & Android."
    },
    {
      "keywords": [
        "C#",
        "Unity3D"
      ],
      "name": "The Brutal Spy",
      "description": "A top down shooter game with multiple levels."
    }
  ],
  "awards": [
    {
      "title": "",
      "date": "",
      "awarder": "",
      "summary": ""
    }
  ],
  "sections": [
    "templates",
    "profile",
    "education",
    "work",
    "skills",
    "projects",
    "awards"
  ]
}